{
  "project_info": {
    "project_number": "478645998439",
    "firebase_url": "https://nomadapp-209616.firebaseio.com",
    "project_id": "nomadapp-209616",
    "storage_bucket": "nomadapp-209616.appspot.com"
  },
  "client": [
    {
      "client_info": {
        "mobilesdk_app_id": "1:478645998439:android:af35ef3e811097d1",
        "android_client_info": {
          "package_name": "com.nomad.truckapp"
        }
      },
      "oauth_client": [
        {
          "client_id": "478645998439-tnhfghu03715ok0lkncabgjsrmr7bvb3.apps.googleusercontent.com",
          "client_type": 1,
          "android_info": {
            "package_name": "com.nomad.truckapp",
            "certificate_hash": "b81967316493155d05dff8867e3c8a15bba0d123"
          }
        },
        {
          "client_id": "478645998439-94j17e7c7khl9u7vcbcumb649bi00kvr.apps.googleusercontent.com",
          "client_type": 3
        }
      ],
      "api_key": [
        {
          "current_key": "AIzaSyCB-0ndIUEFUM_QirWljpOQh6hy_oMEJeo"
        }
      ],
      "services": {
        "analytics_service": {
          "status": 1
        },
        "appinvite_service": {
          "status": 2,
          "other_platform_oauth_client": [
            {
              "client_id": "478645998439-94j17e7c7khl9u7vcbcumb649bi00kvr.apps.googleusercontent.com",
              "client_type": 3
            }
          ]
        },
        "ads_service": {
          "status": 2
        }
      }
    }
  ],
  "configuration_version": "1"
}